OU-Models-Prediction • blouch
…
ruminant.trdata #Full dataset
#> $phy 
#> 
#> Phylogenetic tree with 43 tips and 42 internal nodes.
#> 
#> Tip labels:
#>   Antilocapra_americana, Addax_nasomaculatus, Aepyceros_melampus, Alcelaphus_buselaphus_buselaphus, Antidorcas_marsupialis, Antilope_cervicapra, ...
#> Node labels:
#>   MF, MF, MF, MF, MF, MF, ...
#> 
#> Rooted; includes branch lengths.
#> 
#> $dat 
#> # A tibble: 43 × 10
#>    brain_mass_g_log_… brain_se_squared n_brain body_mass_g_log_… body_se_squared
#>                 <dbl>            <dbl>   <int>             <dbl>           <dbl>
#>  1               4.80         0.0109         1             11.0          0.0426 
#>  2               5.30         0.00547        2             11.6          0.0213 
#>  3               5.15         0.000995      11             10.9          0.00387
#>  4               5.69         0.00219        5             11.9          0.00852
#>  5               4.91         0.000842      13             10.5          0.00328
#>  6               4.77         0.0109         1             10.4          0.0426 
#>  7               4.42         0.0109         1              9.43         0.0426 
#>  8               4.42         0.00365        3              9.58         0.0213 
#>  9               3.52         0.00137        8              8.46         0.00533
#> 10               5.72         0.0109         1             11.9          0.0426 
#> # … with 33 more rows, and 5 more variables: n_body <int>,
#> #   neocortex_area_mm2_log_mean <dbl>, neocortex_se_squared <dbl>,
#> #   n_neocortex <int>, diet <fct>
…
ruminant.trdata #Full dataset
#> $phy 
#> 
#> Phylogenetic tree with 43 tips and 42 internal nodes.
#> 
#> Tip labels:
#>   Antilocapra_americana, Addax_nasomaculatus, Aepyceros_melampus, Alcelaphus_buselaphus_buselaphus, Antidorcas_marsupialis, Antilope_cervicapra, ...
#> Node labels:
#>   MF, MF, MF, MF, MF, MF, ...
#> 
#> Rooted; includes branch lengths.
#> 
#> $dat 
#> # A tibble: 43 × 10
#>    brain_mass_g_log_… brain_se_squared n_brain body_mass_g_log_… body_se_squared
#>                 <dbl>            <dbl>   <int>             <dbl>           <dbl>
#>  1               4.80         0.0109         1             11.0          0.0426 
#>  2               5.30         0.00547        2             11.6          0.0213 
#>  3               5.15         0.000995      11             10.9          0.00387
#>  4               5.69         0.00219        5             11.9          0.00852
#>  5               4.91         0.000842      13             10.5          0.00328
#>  6               4.77         0.0109         1             10.4          0.0426 
#>  7               4.42         0.0109         1              9.43         0.0426 
#>  8               4.42         0.00365        3              9.58         0.0213 
#>  9               3.52         0.00137        8              8.46         0.00533
#> 10               5.72         0.0109         1             11.9          0.0426 
#> # … with 33 more rows, and 5 more variables: n_body <int>,
#> #   neocortex_area_mm2_log_mean <dbl>, neocortex_se_squared <dbl>,
#> #   n_neocortex <int>, diet <fct>
…
